<svg xmlns="http://www.w3.org/2000/svg" width="21.667" height="15.922" viewBox="0 0 21.667 15.922">
  <g id="Group_1409" data-name="Group 1409" transform="translate(-338 -368.45)">
    <g id="Group_702" data-name="Group 702" transform="translate(337 367)">
      <g id="Group_493" data-name="Group 493" transform="translate(1 1.45)">
        <path id="Path_11289" data-name="Path 11289" d="M1970,1435h15.441" transform="translate(-1968.008 -1431.156)" fill="none" stroke="#5dff00" stroke-linecap="round" stroke-width="2"/>
        <path id="Path_11290" data-name="Path 11290" d="M0,0H15.441" transform="translate(19.674 12.079) rotate(180)" fill="none" stroke="#5dff00" stroke-linecap="round" stroke-width="2"/>
        <path id="Path_11291" data-name="Path 11291" d="M2000.5,1425.283v7.455l4.981-3.86Z" transform="translate(-1983.814 -1425.283)" fill="#5dff00"/>
        <path id="Path_11292" data-name="Path 11292" d="M0,0V7.455l4.981-3.86Z" transform="translate(4.981 15.922) rotate(180)" fill="#5dff00"/>
      </g>
    </g>
  </g>
</svg>
