<svg xmlns="http://www.w3.org/2000/svg" width="24" height="24" viewBox="0 0 24 24">
  <g id="Group_1403" data-name="Group 1403" transform="translate(-287 -244)">
    <g id="Rectangle_1527" data-name="Rectangle 1527" transform="translate(287 244)" fill="none" stroke="#5dff00" stroke-width="2">
      <rect width="10" height="10" stroke="none"/>
      <rect x="1" y="1" width="8" height="8" fill="none"/>
    </g>
    <g id="Rectangle_1530" data-name="Rectangle 1530" transform="translate(287 258)" fill="none" stroke="#5dff00" stroke-width="2">
      <rect width="10" height="10" stroke="none"/>
      <rect x="1" y="1" width="8" height="8" fill="none"/>
    </g>
    <g id="Rectangle_1528" data-name="Rectangle 1528" transform="translate(301 244)" fill="none" stroke="#5dff00" stroke-width="2">
      <rect width="10" height="10" stroke="none"/>
      <rect x="1" y="1" width="8" height="8" fill="none"/>
    </g>
    <g id="Rectangle_1529" data-name="Rectangle 1529" transform="translate(301 258)" fill="none" stroke="#5dff00" stroke-width="2">
      <rect width="10" height="10" stroke="none"/>
      <rect x="1" y="1" width="8" height="8" fill="none"/>
    </g>
  </g>
</svg>
